pl\sdacademy\chat\controller\user\UserController.class
pl\sdacademy\chat\domain\User.class
pl\sdacademy\chat\service\UserService.class
pl\sdacademy\chat\service\impl\SendMessageServiceImpl.class
pl\sdacademy\chat\controller\message\MessageController.class
pl\sdacademy\chat\service\ChatroomService.class
pl\sdacademy\chat\domain\repository\ChatroomRepository.class
pl\sdacademy\chat\domain\Chatroom.class
pl\sdacademy\chat\service\impl\UserServiceImpl.class
pl\sdacademy\chat\WebApplication.class
pl\sdacademy\chat\service\impl\SecurityServiceImpl.class
pl\sdacademy\chat\WebSecurityConfig.class
pl\sdacademy\chat\service\SendMessageService.class
pl\sdacademy\chat\domain\repository\MessageRepository.class
pl\sdacademy\chat\domain\Message.class
pl\sdacademy\chat\controller\chatroom\ChatroomController.class
pl\sdacademy\chat\domain\Role.class
pl\sdacademy\chat\domain\repository\UserRepository.class
pl\sdacademy\chat\service\impl\ChatroomServiceImpl.class
pl\sdacademy\chat\service\SecurityService.class
pl\sdacademy\chat\service\impl\UserDetailsServiceImpl.class
pl\sdacademy\chat\domain\repository\RoleRepository.class
pl\sdacademy\chat\validator\UserValidator.class
